0,Alpha Flight,110,1983
1,Alpha Flight,111,1983
2,Alpha Flight,112,1983
3,Captain America,408,1968
4,Daredevil,310,1964
5,Deathlok,16,1991
6,Doctor Strange: Sorcerer Supreme,42,1988
7,Doctor Strange: Sorcerer Supreme,43,1988
8,Doctor Strange: Sorcerer Supreme,44,1988
9,Doctor Strange: Sorcerer Supreme,45,1988
10,Doctor Strange: Sorcerer Supreme,46,1988
11,Doctor Strange: Sorcerer Supreme,47,1988
12,Fantastic Four,366,1961
13,Fantastic Four,367,1961
14,Fantastic Four,368,1961
15,Fantastic Four,369,1961
16,Fantastic Four,370,1961
17,Guardians of the Galaxy,27,1990
18,Guardians of the Galaxy,28,1990
19,Guardians of the Galaxy,29,1990
20,Infinity War,Infinity War (1992) TPB,1992
21,Infinity War,1,1992
22,Infinity War,2,1992
23,Infinity War,3,1992
24,Infinity War,4,1992
25,Infinity War,5,1992
26,Infinity War,6,1992
27,Infinity War Omnibus,Infinity War Omnibus (2019) Omnibus HC,2019
28,Marc Spector: Moon Knight,41,1989
29,Marc Spector: Moon Knight,42,1989
30,Marc Spector: Moon Knight,43,1989
31,Marc Spector: Moon Knight,44,1989
32,Marvel Comics Presents,108,1988
33,Marvel Comics Presents,109,1988
34,Marvel Comics Presents,110,1988
35,Marvel Comics Presents,111,1988
36,The New Warriors,27,1990
37,Nomad,7,1992
38,Quasar,38,1989
39,Quasar,39,1989
40,Quasar,40,1989
41,Silver Sable and the Wild Pack,4,1992
42,Silver Sable and the Wild Pack,5,1992
43,Silver Surfer,67,1987
44,Silver Surfer,68,1987
45,Silver Surfer,69,1987
46,Sleepwalker,18,1991
47,Spider-Man,24,1990
48,Warlock and the Infinity Watch,Warlock and the Infinity Watch (1992) TPB vol. 01,1992
49,Warlock and the Infinity Watch,7,1992
50,Warlock and the Infinity Watch,8,1992
51,Warlock and the Infinity Watch,9,1992
52,Warlock and the Infinity Watch,10,1992
53,Wonder Man,13,1991
54,Wonder Man,14,1991
55,The Amazing Spider-Man,251,1963
56,The Amazing Spider-Man,252,1963
57,The Avengers,242,1963
58,The Avengers,243,1963
59,Captain America,292,1968
60,Code of Honor,3,1997
61,Deadpool's Secret Secret Wars,1,2015
62,Deadpool's Secret Secret Wars,2,2015
63,Deadpool's Secret Secret Wars,3,2015
64,Deadpool's Secret Secret Wars,4,2015
65,Fantastic Four,265,1961
66,The Incredible Hulk,294,1968
67,The Incredible Hulk,295,1968
68,Iron Man,181,1968
69,Iron Man,182,1968
70,Iron Man,183,1968
71,Marvel Age,12,1983
72,Marvel Exklusiv,9,1998
73,Marvel Free Previews Secret Wars,Marvel Free Previews Secret Wars (2015) nn [01],2015
74,Marvel Masterworks: The Uncanny X-Men,Marvel Masterworks: The Uncanny X-Men (2003) HC vol. 10,2003
75,Marvel Super Heroes Secret Wars,Marvel Super Heroes Secret Wars (1984) TPB vol. 01 (3rd Edition, 3rd Printing),1984
76,Marvel Super Heroes Secret Wars,Marvel Super Heroes Secret Wars (1984) TPB vol. 01 (2nd Edition),1984
77,Marvel Super Heroes Secret Wars,Marvel Super Heroes Secret Wars (1984) TPB vol. 01 (3rd Printing),1984
78,Marvel Super Heroes Secret Wars,Marvel Super Heroes Secret Wars (1984) TPB vol. 01 (1st Printing),1984
79,Marvel Super Heroes Secret Wars,Marvel Super Heroes Secret Wars (1984) TPB (3rd Edition, 2nd Printing),1984
80,Marvel Super Heroes Secret Wars,Marvel Super Heroes Secret Wars (1984) TPB vol. 01 (3rd Edition, 1st Printing),1984
81,Marvel Super Heroes Secret Wars,Marvel Super Heroes Secret Wars (1984) TPB vol. 01 (4th Printing),1984
82,Marvel Super Heroes Secret Wars,Marvel Super Heroes Secret Wars (1984) TPB vol. 01 (2nd Printing),1984
83,Marvel Super Heroes Secret Wars,1 (Newsstand Edition),1984
84,Marvel Super Heroes Secret Wars,1,1984
85,Marvel Super Heroes Secret Wars,2,1984
86,Marvel Super Heroes Secret Wars,3,1984
87,Marvel Super Heroes Secret Wars,4 (Newsstand Edition),1984
88,Marvel Super Heroes Secret Wars,4,1984
89,Marvel Super Heroes Secret Wars,5,1984
90,Marvel Super Heroes Secret Wars,6 (Newsstand Edition),1984
91,Marvel Super Heroes Secret Wars,6,1984
92,Marvel Super Heroes Secret Wars,7,1984
93,Marvel Super Heroes Secret Wars,8,1984
94,Marvel Super Heroes Secret Wars,8 (Hasbro/Secret Wars 8),1984
95,Marvel Super Heroes Secret Wars,9,1984
96,Marvel Super Heroes Secret Wars,10,1984
97,Marvel Super Heroes Secret Wars,11 (Newsstand Edition),1984
98,Marvel Super Heroes Secret Wars,11,1984
99,Marvel Super Heroes Secret Wars,12,1984
100,Marvel Super Heroes Secret Wars Activity Book Facsimile Edition,Marvel Super Heroes Secret Wars Activity Book Facsimile Edition (2015) nn,2015
101,Marvel Team-Up,141,1972
102,New Avengers: Illuminati,3,2007
103,New Avengers: Illuminati,3,México
104,Quasar,8,1989
105,The Spectacular Spider-Man,89,1976
106,Spider-Man &amp; The Secret Wars,1,2010
107,Spider-Man &amp; The Secret Wars,2,2010
108,Spider-Man &amp; The Secret Wars,3,2010
109,Spider-Man &amp; The Secret Wars,4,2010
110,Spider-Man Family Featuring Spider-Clan,1,2007
111,The Thing,10,1983
112,The Thing,22,1983
113,Thor,341,1966
114,Thor,383,1966
115,Thor Epic Collection,Thor Epic Collection (2013) TPB vol. 16,2013
116,Uncanny X-Men,178,1963
117,Uncanny X-Men,179,1963
118,Uncanny X-Men,180,1963
119,Uncanny X-Men,181,1963
120,What If? Secret Wars,What If? Secret Wars (2009) TPB vol. 05,2009
121,What If? Secret Wars,1,2009
122,What If...?,114,1989
123,Batman by Brian Azzarello and Eduardo Risso: The Deluxe Edition,Batman by Brian Azzarello and Eduardo Risso: The Deluxe Edition (2017) HC,2017
124,Batman Noir: Eduardo Risso: The Deluxe Edition,Batman Noir: Eduardo Risso: The Deluxe Edition (2013) HC,2013
125,Booster Gold,44 (2nd Print),2007
126,Booster Gold,44,2007
127,Booster Gold,45 (2nd Print),2007
128,Booster Gold,45,2007
129,Booster Gold,46,2007
130,Booster Gold,47,2007
131,FCBD 2011 Green Lantern Flashpoint Special Edition,1,2011
132,The Flash,1,2010
133,The Flash: A Celebration of 75 Years,The Flash: A Celebration of 75 Years (2015) HC,2015
134,Flashpoint,Flashpoint (2011) HC,2011
135,Flashpoint,Flashpoint (2011) TPB (5th Printing),2011
136,Flashpoint,Flashpoint (2011) TPB,2011
137,Flashpoint,1 (3rd Printing),2011
138,Flashpoint,1 (Kubert Sketch Variant),2011
139,Flashpoint,1 (SDCC Variant),2011
140,Flashpoint,1,2011
141,Flashpoint,1 (2nd Printing),2011
142,Flashpoint,1 (Reis Variant),2011
143,Flashpoint,2 (2nd Printing),2011
144,Flashpoint,2 (Ivan Reis/George Pérez Variant),2011
145,Flashpoint,2,2011
146,Flashpoint,2 (Sketch Variant),2011
147,Flashpoint,3 (Ivan Reis/George Pérez Variant),2011
148,Flashpoint,3,2011
149,Flashpoint,3 (Sketch Variant),2011
150,Flashpoint,4 (Kubert Sketch Variant),2011
151,Flashpoint,4,2011
152,Flashpoint,4 (Rags Morales Variant),2011
153,Flashpoint,5,2011
154,Flashpoint,5 (Sketch Variant),2011
155,Flashpoint,5 (García-López Variant),2011
156,Flashpoint: Abin Sur - The Green Lantern,1,2011
157,Flashpoint: Abin Sur - The Green Lantern,2,2011
158,Flashpoint: Abin Sur - The Green Lantern,3,2011
159,Flashpoint: Batman Knight of Vengeance,1 (2nd Printing),2011
160,Flashpoint: Batman Knight of Vengeance,1,2011
161,Flashpoint: Batman Knight of Vengeance,2,2011
162,Flashpoint: Batman Knight of Vengeance,3,2011
163,Flashpoint: Citizen Cold,1,2011
164,Flashpoint: Citizen Cold,2,2011
165,Flashpoint: Citizen Cold,3,2011
166,Flashpoint: Deadman and the Flying Graysons,1,2011
167,Flashpoint: Deadman and the Flying Graysons,2,2011
168,Flashpoint: Deadman and the Flying Graysons,3,2011
169,Flashpoint: Deathstroke &amp; The Curse of the Ravager,1,2011
170,Flashpoint: Deathstroke &amp; The Curse of the Ravager,2,2011
171,Flashpoint: Deathstroke &amp; The Curse of the Ravager,3,2011
172,Flashpoint: Emperor Aquaman,1,2011
173,Flashpoint: Emperor Aquaman,2,2011
174,Flashpoint: Emperor Aquaman,3,2011
175,Flashpoint: Frankenstein &amp; The Creatures of the Unknown,1,2011
176,Flashpoint: Frankenstein &amp; The Creatures of the Unknown,2,2011
177,Flashpoint: Frankenstein &amp; The Creatures of the Unknown,3,2011
178,Flashpoint: Green Arrow Industries,1,2011
179,Flashpoint: Grodd of War,1,2011
180,Flashpoint: Hal Jordan,1,2011
181,Flashpoint: Hal Jordan,2,2011
182,Flashpoint: Hal Jordan,3,2011
183,Flashpoint: Kid Flash Lost,1,2011
184,Flashpoint: Kid Flash Lost,2,2011
185,Flashpoint: Kid Flash Lost,3,2011
186,Flashpoint: Lois Lane and the Resistance,1,2011
187,Flashpoint: Lois Lane and the Resistance,2,2011
188,Flashpoint: Lois Lane and the Resistance,3,2011
189,Flashpoint: Project Superman,1,2011
190,Flashpoint: Project Superman,2,2011
191,Flashpoint: Project Superman,3,2011
192,Flashpoint: Reverse-Flash,1,2011
193,Flashpoint: Secret Seven,1,2011
194,Flashpoint: Secret Seven,2,2011
195,Flashpoint: Secret Seven,3,2011
196,Flashpoint: The Canterbury Cricket ,1,2011
197,Flashpoint: The Legion of Doom,1,2011
198,Flashpoint: The Legion of Doom,2,2011
199,Flashpoint: The Legion of Doom,3,2011
200,Flashpoint: The Outsider,1,2011
201,Flashpoint: The Outsider,2,2011
202,Flashpoint: The Outsider,3,2011
203,Flashpoint: The World of Flashpoint,1,2011
204,Flashpoint: The World of Flashpoint,2,2011
205,Flashpoint: The World of Flashpoint,3,2011
206,Flashpoint: The World of Flashpoint Featuring Batman,Flashpoint: The World of Flashpoint Featuring Batman (2012) TPB,2012
207,Flashpoint: The World of Flashpoint Featuring Green Lantern,Flashpoint: The World of Flashpoint Featuring Green Lantern (2012) TPB,2012
208,Flashpoint: The World of Flashpoint Featuring Superman,Flashpoint: The World of Flashpoint Featuring Superman (2012) TPB,2012
209,Flashpoint: The World of Flashpoint Featuring The Flash,Flashpoint: The World of Flashpoint Featuring The Flash (2012) TPB,2012
210,Flashpoint: The World of Flashpoint Featuring Wonder Woman,Flashpoint: The World of Flashpoint Featuring Wonder Woman (2012) TPB,2012
211,Flashpoint: Wonder Woman and the Furies,1,2011
212,Flashpoint: Wonder Woman and the Furies,2,2011
213,Flashpoint: Wonder Woman and the Furies,3,2011
214,The Amazing Spider-Man,The Amazing Spider-Man (1963) TPB vol. 11,1963
215,The Amazing Spider-Man,529 (3rd Printing Iron-Spidey Costume Cover),1963
216,The Amazing Spider-Man,529,1963
217,The Amazing Spider-Man,529 (2nd printing),1963
218,The Amazing Spider-Man,530,1963
219,The Amazing Spider-Man,531,1963
220,The Amazing Spider-Man,532,1963
221,The Amazing Spider-Man,532 (2nd Printing Ron Garney Cover),1963
222,The Amazing Spider-Man,533,1963
223,The Amazing Spider-Man,534,1963
224,The Amazing Spider-Man,535,1963
225,The Amazing Spider-Man,536,1963
226,The Amazing Spider-Man,537 (2nd Printing),1963
227,The Amazing Spider-Man,537,1963
228,The Amazing Spider-Man,538 (Midtown Comics NYCC Cover),1963
229,The Amazing Spider-Man,538,1963
230,The Astonishing Spider-Man,46,2007
231,The Astonishing Spider-Man,47,2007
232,The Astonishing Spider-Man,53,2007
233,The Astonishing Spider-Man,54,2007
234,The Astonishing Spider-Man,58,2007
235,Avengers Unconquered,1,2009
236,Avengers Unconquered,2,2009
237,Avengers Unconquered,3,2009
238,Avengers Unconquered,4,2009
239,Avengers Unconquered,5,2009
240,Avengers Unconquered,6,2009
241,Avengers Unconquered,7,2009
242,Black Panther,Black Panther (2005) Collected Edition,2005
243,Black Panther,Black Panther (2005) 2017 Edition TPB vol. 01,2005
244,Black Panther,Black Panther (2005) TPB vol. 04,2005
245,Black Panther,Black Panther (2005) 2018 Edition TPB vol. 02,2005
246,Black Panther,17,2005
247,Black Panther,18,2005
248,Black Panther,18 (Michael Turner Variant Cover),2005
249,Black Panther,21 (2nd Print Manuel Garcia Cover),2005
250,Black Panther,21,2005
251,Black Panther,22,2005
252,Black Panther,23,2005
253,Black Panther,24,2005
254,Black Panther,25,2005
255,Black Panther,25 (Aspen Comics Exclusive Variant Cover),2005
256,Blade,5,2006
257,Cable &amp; Deadpool,Cable &amp; Deadpool (2004) Ultimate Collection TPB vol. 02,2004
258,Cable &amp; Deadpool,Cable &amp; Deadpool (2004) TPB vol. 06,2004
259,Cable &amp; Deadpool,30,2004
260,Cable &amp; Deadpool,31,2004
261,Cable &amp; Deadpool,32,2004
262,Captain America,Captain America (2005) Omnibus vol. 01,2005
263,Captain America,Captain America (2005) HC vol. 03,2005
264,Captain America,Captain America (2005) TPB vol. 05,2005
265,Captain America,Captain America (2005) TPB vol. 06,2005
266,Captain America,22,2005
267,Captain America,23,2005
268,Captain America,24,2005
269,Captain America,25,2005
270,Captain America,25 (Wizard World Los Angeles Variant),2005
271,Captain America,25 (Director's Cut),2005
272,Captain America,25 (Ed McGuinness Cover),2005
273,Captain America,25 (Second Print Variant Cover),2005
274,Captain America: Civil War ,1,México
275,Captain America: Civil War ,2,México
276,Captain America: Civil War ,3,México
277,Captain America: Civil War ,4,México
278,Captain Marvel: Carol Danvers  The Ms. Marvel Years,Captain Marvel: Carol Danvers  The Ms. Marvel Years (2018) TPB vol. 01,2018
279,Civil War,Civil War (2006) HC,2006
280,Civil War,Civil War (2006) TPB (Panini (2nd Edition)),2006
281,Civil War,Civil War (2006) TPB,2006
282,Civil War,Civil War (2006) TPB,2006
283,Civil War,1 (Michael Turner  Aspen Comics Exclusive Cover),2006
284,Civil War,1 (Michael Turner Sketch Cover ),2006
285,Civil War,1 (Michael Turner Cover),2006
286,Civil War,1,2006
287,Civil War,1 Director's Cut (Director's Cut),2006
288,Civil War,1 (2nd Printing - Steve McNiven Cover),2006
289,Civil War,2 (3rd Print - Sketch Variant),2006
290,Civil War,2 (2nd Print Spider-Man Cover),2006
291,Civil War,2 (Michael Turner Sketch Cover),2006
292,Civil War,2,2006
293,Civil War,2 (Michael Turner Cover),2006
294,Civil War,3,2006
295,Civil War,3 (Michael Turner Sketch Cover),2006
296,Civil War,3 (2nd Printing Variant Cover),2006
297,Civil War,3 (Michael Turner Cover),2006
298,Civil War,3 (Ed McGuinness Cover),2006
299,Civil War,4 (Michael Turner Cover),2006
300,Civil War,4,2006
301,Civil War,4 (Michael Turner Sketch Cover),2006
302,Civil War,5 (Michael Turner Cover),2006
303,Civil War,5,2006
304,Civil War,6,2006
305,Civil War,6 (Michael Turner Sketch Cover),2006
306,Civil War,6 (Michael Turner Cover),2006
307,Civil War,7 (Michael Turner Cover),2006
308,Civil War,7,2006
309,Civil War,7 (Michael Turner Sketch Cover),2006
310,Civil War,1,2016
311,Civil War Chronicles,1,2007
312,Civil War Chronicles,2,2007
313,Civil War Chronicles,3,2007
314,Civil War Chronicles,4,2007
315,Civil War Chronicles,5,2007
316,Civil War Chronicles,6,2007
317,Civil War Chronicles,7,2007
318,Civil War Chronicles,8,2007
319,Civil War Chronicles,9,2007
320,Civil War Chronicles,10,2007
321,Civil War Chronicles,11,2007
322,Civil War Chronicles,12,2007
323,Civil War Companion,Civil War Companion (2007) TPB,2007
324,Civil War Files,1,2006
325,Civil War Monster Edition,1,México
326,Civil War Poster Book,Civil War Poster Book (2007) nn,2007
327,Civil War: Amazing Spider-Man - Decisions,1 (German Edition),2006
328,Civil War: Amazing Spider-Man - Decisions,1,2006
329,Civil War: Avengers,Civil War: Avengers (2010) HC,2010
330,Civil War: Battle Damage Report,1,2007
331,Civil War: Casualties of War,1,2007
332,Civil War: Choosing Sides,1 (2nd Printing Variant Cover),2006
333,Civil War: Choosing Sides,1,2006
334,Civil War: Fantastic Four,Civil War: Fantastic Four (2010) HC,2010
335,Civil War: Front Line,Civil War: Front Line (2006) TPB vol. 02,2006
336,Civil War: Front Line,Civil War: Front Line (2006) TPB vol. 01,2006
337,Civil War: Front Line,Civil War: Front Line (2006) HC,2006
338,Civil War: Front Line,1 (2nd Printing John Watson Cover),2006
339,Civil War: Front Line,1 (Wizard World Chicago 2006 Michael Turner Sketch Cover),2006
340,Civil War: Front Line,1,2006
341,Civil War: Front Line,2,2006
342,Civil War: Front Line,2 (2nd Printing Variant Cover),2006
343,Civil War: Front Line,3 (2nd Printing Variant Cover),2006
344,Civil War: Front Line,3,2006
345,Civil War: Front Line,4,2006
346,Civil War: Front Line,5,2006
347,Civil War: Front Line,6,2006
348,Civil War: Front Line,7,2006
349,Civil War: Front Line,8,2006
350,Civil War: Front Line,9,2006
351,Civil War: Front Line,10,2006
352,Civil War: Front Line,11,2006
353,Civil War: Marvel Universe,Civil War: Marvel Universe (2007) TPB,2007
354,Civil War: Opening Shot,Civil War: Opening Shot (2006) nn,2006
355,Civil War: The Confession,1,2007
356,Civil War: The Confession,1 (2nd Printing),2007
357,Civil War: The Initiative,1 (2nd printing),2007
358,Civil War: The Initiative,1,2007
359,Civil War: The Return,1,2007
360,Civil War: The Road to Civil War,Civil War: The Road to Civil War (2007) TPB,2007
361,Civil War: The Underside,Civil War: The Underside (2011) HC,2011
362,Civil War: Thunderbolts - Swimming With Sharks,1,2007
363,Civil War: War Crimes,Civil War: War Crimes (2007) TPB,2007
364,Civil War: War Crimes,1,2007
365,Civil War: X-Men,Civil War: X-Men (2006) TPB,2006
366,Civil War: X-Men,1 (Aspen Comics Michael Turner Exclusive Cover),2006
367,Civil War: X-Men,1,2006
368,Civil War: X-Men,2,2006
369,Civil War: X-Men,3,2006
370,Civil War: X-Men,4,2006
371,Civil War: X-Men Universe,Civil War: X-Men Universe (2007) TPB,2007
372,Civil War: Young Avengers &amp; Runaways,Civil War: Young Avengers &amp; Runaways (2006) TPB,2006
373,Civil War: Young Avengers &amp; Runaways,1,2006
374,Civil War: Young Avengers &amp; Runaways,2,2006
375,Civil War: Young Avengers &amp; Runaways,3,2006
376,Civil War: Young Avengers &amp; Runaways,4,2006
377,Daily Bugle Civil War Newspaper Special,1,2006
378,Essential X-Men,174,1995
379,Essential X-Men,175 (Wrapround Cover - Back),1995
380,Essential X-Men,175 (Wrapround Cover - Full),1995
381,Essential X-Men,175,1995
382,Essential X-Men,176,1995
383,Essential X-Men,177,1995
384,Essential X-Men,178,1995
385,Essential X-Men,179,1995
386,Essential X-Men,180,1995
387,Fallen Son: The Death of Captain America,1 (Micheal Turner cover),2007
388,Fallen Son: The Death of Captain America,1,2007
389,Fallen Son: The Death of Captain America,2 (Cover B - Michael Turner),2007
390,Fallen Son: The Death of Captain America,2,2007
391,Fallen Son: The Death of Captain America,3 (Michael Turner cover),2007
392,Fallen Son: The Death of Captain America,3 (Blank Cover Variant),2007
393,Fallen Son: The Death of Captain America,3,2007
394,Fallen Son: The Death of Captain America,4,2007
395,Fallen Son: The Death of Captain America,4 (Michael Turner Cover),2007
396,Fallen Son: The Death of Captain America,5 (Michael Turner Cover),2007
397,Fallen Son: The Death of Captain America,5,2007
398,Fantastic Four,Fantastic Four (1961) TPB,1961
399,Fantastic Four,536 (2nd Printing),1961
400,Fantastic Four,536,1961
401,Fantastic Four,537 (Sketch variant),1961
402,Fantastic Four,537,1961
403,Fantastic Four,538,1961
404,Fantastic Four,539,1961
405,Fantastic Four,540,1961
406,Fantastic Four,541,1961
407,Fantastic Four,542,1961
408,Fantastic Four,543,1961
409,Fantastic Four Adventures,47,2005
410,Fantastic Four Adventures,48,2005
411,Fantastic Four Adventures,49,2005
412,Fantastic Four Adventures,50,2005
413,Fantastic Four Adventures,51,2005
414,Fantastic Four Adventures,52,2005
415,Fantastic Four Adventures,53,2005
416,Ghost Rider,Ghost Rider (2006) TPB,2006
417,Ghost Rider,Ghost Rider (2006) TPB vol. 02,2006
418,Ghost Rider,8,2006
419,Ghost Rider,9,2006
420,Ghost Rider,10,2006
421,Ghost Rider,11,2006
422,Heroes For Hire,Heroes For Hire (2006) TPB vol. 01,2006
423,Heroes For Hire,1 (2nd Printing Variant Cover),2006
424,Heroes For Hire,1,2006
425,Heroes For Hire,2,2006
426,Heroes For Hire,3,2006
427,The Immortal Iron Fist,The Immortal Iron Fist (2007) TPB,2007
428,The Immortal Iron Fist,The Immortal Iron Fist (2007) TPB (2nd Printing),2007
429,The Invincible Iron Man,The Invincible Iron Man (2007) TPB vol. 03,2007
430,Iron Man,13,2005
431,Iron Man,14,2005
432,Iron Man/Captain America: Casualties of War,1 (Captain America Cover),2007
433,Iron Man/Captain America: Casualties of War,1,2007
434,Marvel Encyclopedia,1,2014
435,Marvel Legends,30,2007
436,Marvel Legends,31,2007
437,Marvel Legends,32,2007
438,Marvel Legends,33,2007
439,Marvel Legends,34,2007
440,Marvel Spotlight: Civil War Aftermath,1,2007
441,Marvel Spotlight: Mark Millar/Steve McNiven,1,2006
442,The Mighty World of Marvel,78,2003
443,The Mighty World of Marvel,79,2003
444,The Mighty World of Marvel,80,2003
445,The Mighty World of Marvel,81,2003
446,The Mighty World of Marvel,82,2003
447,The Mighty World of Marvel,83,2003
448,The Mighty World of Marvel,84,2003
449,Moon Knight,Moon Knight (2006) HC vol. 02,2006
450,Moon Knight,Moon Knight (2006) TPB vol. 02,2006
451,Moon Knight,7,2006
452,Moon Knight,8,2006
453,Moon Knight,9,2006
454,Moon Knight,10,2006
455,Moon Knight,11,2006
456,Moon Knight,12,2006
457,Ms. Marvel,Ms. Marvel (2006) TPB vol. 02,2006
458,Ms. Marvel,Ms. Marvel (2006) HC vol. 02,2006
459,Ms. Marvel,6,2006
460,Ms. Marvel,7,2006
461,Ms. Marvel,8,2006
462,New Avengers,New Avengers (2005) Deluxe HC vol. 03,2005
463,New Avengers,New Avengers (2005) HC vol. 05,2005
464,New Avengers,New Avengers (2005) Omnibus HC vol. 01,2005
465,New Avengers,New Avengers (2005) TPB vol. 05,2005
466,New Avengers,21 (2nd Printing),2005
467,New Avengers,21,2005
468,New Avengers,22,2005
469,New Avengers,23 (Olivier Coipel sketch cover),2005
470,New Avengers,23,2005
471,New Avengers,24,2005
472,New Avengers,25,2005
473,New Avengers by Brian Michael Bendis: The Complete Collection,New Avengers by Brian Michael Bendis: The Complete Collection (2017) TPB vol. 02,2017
474,New Avengers: Illuminati,1,2006
475,New Warriors,New Warriors (2005) TPB,2005
476,Punisher War Journal,Punisher War Journal (2007) HC vol. 01,2007
477,Punisher War Journal,Punisher War Journal (2007) TPB vol. 01,2007
478,Punisher War Journal,Punisher War Journal (2007) Complete Collection TPB vol. 01,2007
479,Punisher War Journal,1,2007
480,Punisher War Journal,2,2007
481,Punisher War Journal,3,2007
482,Runaways,Runaways (2005) The Complete Collection TPB vol. 03,2005
483,Runaways,Runaways (2005) The Complete Collection TPB vol. 03 (2nd Printing),2005
484,The Sensational Spider-Man,The Sensational Spider-Man (2006) TPB vol. 02,2006
485,The Sensational Spider-Man,28,2006
486,The Sensational Spider-Man,29,2006
487,The Sensational Spider-Man,30,2006
488,The Sensational Spider-Man,31,2006
489,The Sensational Spider-Man,32,2006
490,The Sensational Spider-Man,33,2006
491,The Sensational Spider-Man,34,2006
492,She-Hulk,8,2005
493,She-Hulk,8 (2nd Printing Juan Bobillo Cover),2005
494,She-Hulk by Dan Slott: The Complete Collection,She-Hulk by Dan Slott: The Complete Collection (2014) TPB vol. 02,2014
495,Thunderbolts,Thunderbolts (1997) TPB,1997
496,Thunderbolts,103,1997
497,Thunderbolts,103 (2nd Printing Mark Bagley  Cover),1997
498,Thunderbolts,104 (2nd Printing Variant Cover),1997
499,Thunderbolts,104,1997
500,Thunderbolts,105,1997
501,Ultimate Civil War: Spider-Ham,1,2007
502,What If? Civil War,1 (Captain Ironmerica Variant),2008
503,What If? Civil War,1 (Sketch Cover),2008
504,What If? Civil War,1,2008
505,Winter Soldier: Winter Kills,1,2007
506,Wolverine,Wolverine (2003) TPB vol. 08,2003
507,Wolverine,42,2003
508,Wolverine,43,2003
509,Wolverine,44,2003
510,Wolverine,45,2003
511,Wolverine,46,2003
512,Wolverine,47,2003
513,Wolverine,48,2003
514,Wolverine and Deadpool,160,2004
515,Wolverine and Deadpool,161,2004
516,Wolverine and Deadpool,162,2004
517,Wolverine and Deadpool,163,2004
518,Wolverine and Deadpool,164,2004
519,Wolverine and Deadpool,165,2004
520,Wolverine and Deadpool,166,2004
521,X-Factor,X-Factor (2006) HC vol. 02,2006
522,X-Factor,X-Factor (2006) TPB vol. 02,2006
523,X-Factor,X-Factor (2006) TPB,2006
524,X-Factor,8,2006
525,X-Factor,8 (2nd Printing),2006
526,X-Factor,9,2006
