bsailer1,0,4
bsailer1,1,4
bsailer1,2,3
bsailer1,3,4
bsailer1,4,2
bsailer1,5,1
bsailer1,6,4
bsailer1,7,3
bsailer1,8,1
bsailer1,9,4
bsailer1,10,4
bsailer1,11,4
bsailer1,12,4
bsailer1,13,4
bsailer1,14,4
bsailer1,15,4
bsailer1,16,2
bsailer1,17,4
bsailer1,18,4
bsailer1,19,3
bsailer1,21,1
bsailer1,21,2
bsailer1,22,2
bsailer1,23,4
bsailer1,24,4
bsailer1,25,4
bsailer1,26,2
bsailer1,27,1
bsailer1,28,1
bsailer1,29,4
bsailer1,30,1
bsailer1,32,4
bsailer1,32,4
bsailer1,33,4
bsailer1,34,4
bsailer1,35,2
bsailer1,36,4
bsailer1,37,4
bsailer1,38,2
bsailer1,39,4
bsailer1,40,3
bsailer1,41,1
bsailer1,42,4
bsailer1,43,4
